<?xml version="1.0" encoding="utf-8"?>
<!-- Generator: Adobe Illustrator 23.0.1, SVG Export Plug-In . SVG Version: 6.00 Build 0)  -->
<svg version="1.1"
	 id="Layer_1" xmlns:cc="http://creativecommons.org/ns#" xmlns:dc="http://purl.org/dc/elements/1.1/" xmlns:rdf="http://www.w3.org/1999/02/22-rdf-syntax-ns#"
	 xmlns="http://www.w3.org/2000/svg" xmlns:xlink="http://www.w3.org/1999/xlink" x="0px" y="0px" viewBox="0 0 206.7 160.8"
	 style="enable-background:new 0 0 206.7 160.8;" xml:space="preserve">
<style type="text/css">
	.st0{fill:#0099DF;}
	.st1{fill:#6C6BBD;}
	.st2{fill:#EB001B;}
	.st3{fill:#231F20;}
</style>
<g transform="translate(-1837.7 -1267.9)">
	<g transform="matrix(3.1437 0 0 3.1437 -1661.1 -866.42)">
		<g transform="matrix(1.25 0 0 -1.25 1176 710.77)">
			<path class="st0" d="M1.7-0.9v0.6H1.5L1.3-0.7L1.1-0.2H1v-0.6h0.1v0.5l0.2-0.4h0.1l0.2,0.4v-0.5H1.7z M0.6-0.9v0.5h0.2v0.1H0.3
				v-0.1h0.2v-0.5H0.6z"/>
		</g>
		<path class="st1" d="M1154.7,715.2h-17.8v-32h17.8V715.2z"/>
		<g transform="matrix(1.25 0 0 -1.25 1137.3 698.59)">
			<path class="st2" d="M0.6-0.5c0,5.2,2.4,9.8,6.2,12.8c-2.8,2.2-6.3,3.5-10,3.5c-9,0-16.3-7.3-16.3-16.3s7.3-16.3,16.3-16.3
				c3.8,0,7.3,1.3,10,3.5C3.1-10.3,0.6-5.7,0.6-0.5"/>
		</g>
		<g transform="matrix(1.25 0 0 -1.25 1176.6 698.59)">
			<path class="st0" d="M1.7-0.5c0-9-7.3-16.3-16.3-16.3c-3.8,0-7.3,1.3-10,3.5c3.8,3,6.2,7.6,6.2,12.8s-2.4,9.8-6.2,12.8
				c2.8,2.2,6.3,3.5,10,3.5C-5.6,15.7,1.7,8.5,1.7-0.5"/>
		</g>
		<g transform="matrix(1.25 0 0 -1.25 1159.2 722.78)">
			<path class="st3" d="M1.2-1.2c0.2,0,0.5,0,0.7-0.1L1.6-2.2C1.4-2.1,1.2-2.1,1-2.1c-0.6,0-0.9-0.4-0.9-1.1v-2.4h-0.9v4.3h0.9v-0.5
				C0.3-1.4,0.7-1.2,1.2-1.2 M-2.3-2.1h-1.5v-2c0-0.4,0.2-0.7,0.6-0.7c0.2,0,0.6,0.1,0.8,0.2l0.3-0.8c-0.3-0.2-0.8-0.3-1.2-0.3
				c-1.1,0-1.5,0.6-1.5,1.6v2h-0.9v0.9h0.9V0h0.9v-1.3h1.5L-2.3-2.1z M-14.3-3.1c0.1,0.6,0.5,1,1.1,1c0.6,0,1-0.4,1.1-1H-14.3z
				 M-11.1-3.4c0,1.3-0.8,2.3-2.1,2.3c-1.3,0-2.1-0.9-2.1-2.3c0-1.4,0.9-2.3,2.2-2.3c0.7,0,1.2,0.2,1.8,0.6l-0.5,0.7
				c-0.4-0.3-0.8-0.5-1.3-0.5c-0.6,0-1.2,0.3-1.3,1.1h3.2C-11.1-3.7-11.1-3.6-11.1-3.4 M-6.9-2.4C-7.2-2.2-7.7-2-8.3-2
				c-0.5,0-0.8-0.2-0.8-0.5c0-0.3,0.3-0.4,0.7-0.4L-7.9-3C-7-3.1-6.4-3.5-6.4-4.3c0-0.8-0.7-1.4-2-1.4c-0.7,0-1.4,0.2-1.9,0.6
				l0.4,0.7C-9.5-4.7-9-4.9-8.4-4.9c0.6,0,1,0.2,1,0.5c0,0.2-0.2,0.4-0.8,0.5l-0.4,0.1c-1,0.1-1.5,0.6-1.5,1.3
				c0,0.9,0.7,1.4,1.8,1.4c0.7,0,1.3-0.2,1.8-0.5L-6.9-2.4z M4.6-2.1c-0.2,0-0.4,0-0.5-0.1C3.9-2.2,3.8-2.3,3.7-2.5
				C3.6-2.6,3.5-2.7,3.4-2.9C3.3-3.1,3.3-3.3,3.3-3.5c0-0.2,0-0.4,0.1-0.6c0.1-0.2,0.2-0.3,0.3-0.4c0.1-0.1,0.3-0.2,0.4-0.3
				c0.2-0.1,0.3-0.1,0.5-0.1c0.2,0,0.4,0,0.5,0.1c0.2,0.1,0.3,0.2,0.4,0.3C5.7-4.3,5.8-4.2,5.9-4C6-3.9,6-3.7,6-3.5
				c0,0.2,0,0.4-0.1,0.6C5.8-2.7,5.7-2.6,5.6-2.5C5.5-2.3,5.4-2.2,5.2-2.2C5-2.1,4.8-2.1,4.6-2.1 M4.6-1.2c0.3,0,0.6-0.1,0.9-0.2
				c0.3-0.1,0.5-0.3,0.7-0.5C6.5-2,6.7-2.3,6.8-2.6C6.9-2.8,7-3.1,7-3.5S6.9-4.1,6.8-4.4C6.7-4.6,6.5-4.9,6.3-5.1
				C6.1-5.3,5.9-5.5,5.6-5.6C5.3-5.7,5-5.7,4.6-5.7C4.3-5.7,4-5.7,3.7-5.6C3.4-5.5,3.2-5.3,3-5.1C2.8-4.9,2.6-4.6,2.5-4.4
				C2.4-4.1,2.3-3.8,2.3-3.5s0.1,0.6,0.2,0.9C2.6-2.3,2.8-2,3-1.8s0.5,0.4,0.7,0.5C4-1.2,4.3-1.2,4.6-1.2 M-19.8-3.4
				c0,0.8,0.5,1.4,1.3,1.4c0.8,0,1.3-0.6,1.3-1.4s-0.5-1.4-1.3-1.4C-19.3-4.8-19.8-4.2-19.8-3.4 M-16.3-3.4v2.2h-0.9v-0.5
				c-0.3,0.4-0.7,0.6-1.4,0.6c-1.2,0-2.2-0.9-2.2-2.3c0-1.3,0.9-2.3,2.2-2.3c0.6,0,1.1,0.2,1.4,0.6v-0.5h0.9V-3.4z M-21.6-5.6v2.7
				c0,1-0.7,1.7-1.7,1.7c-0.6,0-1.1-0.2-1.5-0.8c-0.3,0.5-0.8,0.8-1.4,0.8c-0.5,0-0.9-0.1-1.3-0.6v0.5h-0.9v-4.3h0.9v2.4
				c0,0.7,0.4,1.1,1.1,1.1c0.6,0,0.9-0.4,0.9-1.1v-2.4h0.9v2.4c0,0.7,0.4,1.1,1.1,1.1c0.6,0,0.9-0.4,0.9-1.1v-2.4H-21.6z"/>
		</g>
		<g transform="matrix(1.25 0 0 -1.25 1167.4 727.74)">
			<path class="st3" d="M1.4-1.3v-0.1h0.1c0,0,0,0,0.1,0c0,0,0,0,0,0c0,0,0,0,0,0C1.6-1.3,1.6-1.3,1.4-1.3L1.4-1.3z M1.5-1.2
				c0.1,0,0.1,0,0.1,0c0,0,0-0.1,0-0.1c0,0,0-0.1,0-0.1c0,0-0.1,0-0.1,0l0.1-0.1H1.6L1.5-1.5h0v-0.1H1.4v0.4H1.5z M1.5-1.8
				c0,0,0.1,0,0.1,0c0,0,0.1,0,0.1,0.1s0.1,0.1,0.1,0.1c0,0,0,0.1,0,0.1c0,0,0,0.1,0,0.1c0,0,0,0.1-0.1,0.1c0,0-0.1,0.1-0.1,0.1
				c0,0-0.1,0-0.1,0s-0.1,0-0.1,0c0,0-0.1,0-0.1-0.1c0,0-0.1-0.1-0.1-0.1c0,0,0-0.1,0-0.1c0,0,0-0.1,0-0.1c0,0,0-0.1,0.1-0.1
				s0.1-0.1,0.1-0.1C1.4-1.8,1.5-1.8,1.5-1.8 M1.5-1c0.1,0,0.1,0,0.2,0c0.1,0,0.1-0.1,0.1-0.1c0,0,0.1-0.1,0.1-0.1
				c0-0.1,0-0.1,0-0.2s0-0.1,0-0.2c0-0.1-0.1-0.1-0.1-0.1c0,0-0.1-0.1-0.1-0.1c-0.1,0-0.1,0-0.2,0c-0.1,0-0.1,0-0.2,0
				c-0.1,0-0.1,0.1-0.1,0.1c0,0-0.1,0.1-0.1,0.1c0,0.1,0,0.1,0,0.2s0,0.1,0,0.2c0,0.1,0.1,0.1,0.1,0.1c0,0,0.1,0.1,0.1,0.1
				C1.4-1,1.4-1,1.5-1"/>
		</g>
	</g>
</g>
</svg>
